{
 "standings": [
  {
   "lastAccept": 1583678115, 
   "pos": 1, 
   "score": 1453, 
   "taskStats": {
    "test": {
     "points": 453, 
     "time": 1583677556
    }, 
    "test2": {
     "points": 500, 
     "time": 1583677947
    }, 
    "test3": {
     "points": 500, 
     "time": 1583678115
    }
   }, 
   "team": "lol"
  }, 
  {
   "lastAccept": 1583967496, 
   "pos": 2, 
   "score": 453, 
   "taskStats": {
    "test": {
     "points": 453, 
     "time": 1583967496
    }
   }, 
   "team": "TesTeam"
  }, 
  {
   "lastAccept": 1584814725, 
   "pos": 3, 
   "score": 453, 
   "taskStats": {
    "test": {
     "points": 453, 
     "time": 1584814725
    }
   }, 
   "team": "ELT"
  }
 ], 
 "tasks": [
  "test", 
  "test2", 
  "test3"
 ]
}